…
## **Data characterisation**

Data characterisation is defined as the pre-processing phase of
summarization of the different features and characteristics presents in
the observations of a given data set, this process may be accomplished
by introducing the data to the viewer using statistics measure
summaries, and presenting visually using graphs, like bar charts and
scatter plots (Capozzoli, Cerquitelli and Piscitelli, 2016; Han, Kamber
and Pei, 2012).

``` r
SBD
```

    ## # A tibble: 6,321 × 13
    ##    Record_ID Auction_ID Bidder_ID Bidder_Tendency Bidding_Ratio Successive_Outb…
    ##        <dbl>      <dbl> <chr>               <dbl>         <dbl>            <dbl>
    ##  1         1        732 _***i              0.2            0.4                0  
    ##  2         2        732 g***r              0.0244         0.2                0  
    ##  3         3        732 t***p              0.143          0.2                0  
    ##  4         4        732 7***n              0.1            0.2                0  
    ##  5         5        900 z***z              0.0513         0.222              0  
    ##  6         8        900 i***e              0.0385         0.111              0  
    ##  7        10        900 m***p              0.4            0.222              0  
    ##  8        12        900 k***a              0.138          0.444              1  
    ##  9        13       2370 g***r              0.122          0.185              1  
    ## 10        27        600 e***t              0.155          0.346              0.5
    ## # … with 6,311 more rows, and 7 more variables: Last_Bidding <dbl>,
    ## #   Auction_Bids <dbl>, Starting_Price_Average <dbl>, Early_Bidding <dbl>,
    ## #   Winning_Ratio <dbl>, Auction_Duration <dbl>, Class <dbl>
…
